LICENSE.txt
MANIFEST.in
README.md
setup.py
cfitsio-4.4.1-20240617/.gitignore
cfitsio-4.4.1-20240617/CMakeLists.txt
cfitsio-4.4.1-20240617/Makefile.in
cfitsio-4.4.1-20240617/README.MacOS
cfitsio-4.4.1-20240617/README.md
cfitsio-4.4.1-20240617/README.win
cfitsio-4.4.1-20240617/README_OLD.win
cfitsio-4.4.1-20240617/buffers.c
cfitsio-4.4.1-20240617/cfileio.c
cfitsio-4.4.1-20240617/cfitsio-config-version.cmake.in
cfitsio-4.4.1-20240617/cfitsio-config.cmake.in
cfitsio-4.4.1-20240617/cfitsio.pc.cmake
cfitsio-4.4.1-20240617/cfitsio.pc.in
cfitsio-4.4.1-20240617/cfitsio_mac.sit.hqx
cfitsio-4.4.1-20240617/cfortran.h
cfitsio-4.4.1-20240617/checksum.c
cfitsio-4.4.1-20240617/config.guess
cfitsio-4.4.1-20240617/config.sub
cfitsio-4.4.1-20240617/configure
cfitsio-4.4.1-20240617/configure.in
cfitsio-4.4.1-20240617/drvrfile.c
cfitsio-4.4.1-20240617/drvrgsiftp.c
cfitsio-4.4.1-20240617/drvrgsiftp.h
cfitsio-4.4.1-20240617/drvrmem.c
cfitsio-4.4.1-20240617/drvrnet.c
cfitsio-4.4.1-20240617/drvrsmem.c
cfitsio-4.4.1-20240617/drvrsmem.h
cfitsio-4.4.1-20240617/editcol.c
cfitsio-4.4.1-20240617/edithdu.c
cfitsio-4.4.1-20240617/eval.l
cfitsio-4.4.1-20240617/eval.y
cfitsio-4.4.1-20240617/eval_defs.h
cfitsio-4.4.1-20240617/eval_f.c
cfitsio-4.4.1-20240617/eval_l.c
cfitsio-4.4.1-20240617/eval_tab.h
cfitsio-4.4.1-20240617/eval_y.c
cfitsio-4.4.1-20240617/f77.inc
cfitsio-4.4.1-20240617/f77_wrap.h
cfitsio-4.4.1-20240617/f77_wrap1.c
cfitsio-4.4.1-20240617/f77_wrap2.c
cfitsio-4.4.1-20240617/f77_wrap3.c
cfitsio-4.4.1-20240617/f77_wrap4.c
cfitsio-4.4.1-20240617/fits_hcompress.c
cfitsio-4.4.1-20240617/fits_hdecompress.c
cfitsio-4.4.1-20240617/fitscore.c
cfitsio-4.4.1-20240617/fitsio.h
cfitsio-4.4.1-20240617/fitsio2.h
cfitsio-4.4.1-20240617/getcol.c
cfitsio-4.4.1-20240617/getcolb.c
cfitsio-4.4.1-20240617/getcold.c
cfitsio-4.4.1-20240617/getcole.c
cfitsio-4.4.1-20240617/getcoli.c
cfitsio-4.4.1-20240617/getcolj.c
cfitsio-4.4.1-20240617/getcolk.c
cfitsio-4.4.1-20240617/getcoll.c
cfitsio-4.4.1-20240617/getcols.c
cfitsio-4.4.1-20240617/getcolsb.c
cfitsio-4.4.1-20240617/getcolui.c
cfitsio-4.4.1-20240617/getcoluj.c
cfitsio-4.4.1-20240617/getcoluk.c
cfitsio-4.4.1-20240617/getkey.c
cfitsio-4.4.1-20240617/group.c
cfitsio-4.4.1-20240617/group.h
cfitsio-4.4.1-20240617/grparser.c
cfitsio-4.4.1-20240617/grparser.h
cfitsio-4.4.1-20240617/histo.c
cfitsio-4.4.1-20240617/imcompress.c
cfitsio-4.4.1-20240617/install-sh
cfitsio-4.4.1-20240617/iraffits.c
cfitsio-4.4.1-20240617/iter_a.c
cfitsio-4.4.1-20240617/iter_a.f
cfitsio-4.4.1-20240617/iter_a.fit
cfitsio-4.4.1-20240617/iter_b.c
cfitsio-4.4.1-20240617/iter_b.f
cfitsio-4.4.1-20240617/iter_b.fit
cfitsio-4.4.1-20240617/iter_c.c
cfitsio-4.4.1-20240617/iter_c.f
cfitsio-4.4.1-20240617/iter_c.fit
cfitsio-4.4.1-20240617/iter_image.c
cfitsio-4.4.1-20240617/iter_var.c
cfitsio-4.4.1-20240617/longnam.h
cfitsio-4.4.1-20240617/modkey.c
cfitsio-4.4.1-20240617/pliocomp.c
cfitsio-4.4.1-20240617/putcol.c
cfitsio-4.4.1-20240617/putcolb.c
cfitsio-4.4.1-20240617/putcold.c
cfitsio-4.4.1-20240617/putcole.c
cfitsio-4.4.1-20240617/putcoli.c
cfitsio-4.4.1-20240617/putcolj.c
cfitsio-4.4.1-20240617/putcolk.c
cfitsio-4.4.1-20240617/putcoll.c
cfitsio-4.4.1-20240617/putcols.c
cfitsio-4.4.1-20240617/putcolsb.c
cfitsio-4.4.1-20240617/putcolu.c
cfitsio-4.4.1-20240617/putcolui.c
cfitsio-4.4.1-20240617/putcoluj.c
cfitsio-4.4.1-20240617/putcoluk.c
cfitsio-4.4.1-20240617/putkey.c
cfitsio-4.4.1-20240617/quantize.c
cfitsio-4.4.1-20240617/region.c
cfitsio-4.4.1-20240617/region.h
cfitsio-4.4.1-20240617/ricecomp.c
cfitsio-4.4.1-20240617/sample.tpl
cfitsio-4.4.1-20240617/scalnull.c
cfitsio-4.4.1-20240617/simplerng.c
cfitsio-4.4.1-20240617/simplerng.h
cfitsio-4.4.1-20240617/swapproc.c
cfitsio-4.4.1-20240617/testf77.out
cfitsio-4.4.1-20240617/testf77.std
cfitsio-4.4.1-20240617/testprog.out
cfitsio-4.4.1-20240617/testprog.std
cfitsio-4.4.1-20240617/testprog.tpt
cfitsio-4.4.1-20240617/vmsieee.c
cfitsio-4.4.1-20240617/wcssub.c
cfitsio-4.4.1-20240617/wcsutil.c
cfitsio-4.4.1-20240617/winDumpExts.mak
cfitsio-4.4.1-20240617/windumpexts.c
cfitsio-4.4.1-20240617/zcompress.c
cfitsio-4.4.1-20240617/zuncompress.c
cfitsio-4.4.1-20240617/cfitsio.xcodeproj/project.pbxproj
cfitsio-4.4.1-20240617/docs/cfitsio.pdf
cfitsio-4.4.1-20240617/docs/cfitsio.ps
cfitsio-4.4.1-20240617/docs/cfitsio.tex
cfitsio-4.4.1-20240617/docs/cfitsio.toc
cfitsio-4.4.1-20240617/docs/cfortran.doc
cfitsio-4.4.1-20240617/docs/changes.txt
cfitsio-4.4.1-20240617/docs/fitsio.pdf
cfitsio-4.4.1-20240617/docs/fitsio.ps
cfitsio-4.4.1-20240617/docs/fitsio.tex
cfitsio-4.4.1-20240617/docs/fitsio.toc
cfitsio-4.4.1-20240617/docs/fpackguide.odt
cfitsio-4.4.1-20240617/docs/fpackguide.pdf
cfitsio-4.4.1-20240617/docs/quick.pdf
cfitsio-4.4.1-20240617/docs/quick.ps
cfitsio-4.4.1-20240617/docs/quick.tex
cfitsio-4.4.1-20240617/docs/quick.toc
cfitsio-4.4.1-20240617/licenses/License.txt
cfitsio-4.4.1-20240617/utilities/cookbook.c
cfitsio-4.4.1-20240617/utilities/cookbook.f
cfitsio-4.4.1-20240617/utilities/fitscopy.c
cfitsio-4.4.1-20240617/utilities/fitsverify.c
cfitsio-4.4.1-20240617/utilities/fpack.c
cfitsio-4.4.1-20240617/utilities/fpack.h
cfitsio-4.4.1-20240617/utilities/fpackutil.c
cfitsio-4.4.1-20240617/utilities/ftverify.c
cfitsio-4.4.1-20240617/utilities/funpack.c
cfitsio-4.4.1-20240617/utilities/fverify.h
cfitsio-4.4.1-20240617/utilities/fvrf_data.c
cfitsio-4.4.1-20240617/utilities/fvrf_file.c
cfitsio-4.4.1-20240617/utilities/fvrf_head.c
cfitsio-4.4.1-20240617/utilities/fvrf_key.c
cfitsio-4.4.1-20240617/utilities/fvrf_misc.c
cfitsio-4.4.1-20240617/utilities/imcopy.c
cfitsio-4.4.1-20240617/utilities/smem.c
cfitsio-4.4.1-20240617/utilities/speed.c
cfitsio-4.4.1-20240617/utilities/testf77.f
cfitsio-4.4.1-20240617/utilities/testprog.c
fitsio/__init__.py
fitsio/fits_exceptions.py
fitsio/fitsio_pywrap.c
fitsio/fitslib.py
fitsio/header.py
fitsio/util.py
fitsio.egg-info/PKG-INFO
fitsio.egg-info/SOURCES.txt
fitsio.egg-info/dependency_links.txt
fitsio.egg-info/requires.txt
fitsio.egg-info/top_level.txt
fitsio/hdu/__init__.py
fitsio/hdu/base.py
fitsio/hdu/image.py
fitsio/hdu/table.py
fitsio/test_images/test_gzip_compressed_image.fits.fz
fitsio/tests/__init__.py
fitsio/tests/checks.py
fitsio/tests/makedata.py
fitsio/tests/test_empty_slice.py
fitsio/tests/test_header.py
fitsio/tests/test_header_junk.py
fitsio/tests/test_image.py
fitsio/tests/test_image_compression.py
fitsio/tests/test_lib.py
fitsio/tests/test_table.py
fitsio/tests/test_warnings.py
patches/Makefile.in.patch
patches/README.md
patches/build_cfitsio_patches.py
patches/configure.in.patch
patches/configure.patch
patches/fitscore.c.patch
patches/fitsio.h.patch
patches/fitsio2.h.patch
patches/putcols.c.patch
zlib/LICENSE
zlib/adler32.c
zlib/crc32.c
zlib/crc32.h
zlib/deflate.c
zlib/deflate.h
zlib/infback.c
zlib/inffast.c
zlib/inffast.h
zlib/inffixed.h
zlib/inflate.c
zlib/inflate.h
zlib/inftrees.c
zlib/inftrees.h
zlib/trees.c
zlib/trees.h
zlib/uncompr.c
zlib/zconf.h
zlib/zlib.h
zlib/zutil.c
zlib/zutil.h